…
# Let’s add an indicator of whether a particular value is zero or not.
grid_axe = grid_axe %>%
   mutate(pixel = ifelse(is.na(line),0,1))

# subsample to a smaller size
library(Hmisc)
grid_axe$xgroup = cut2(grid_axe$x,g=16,levels.mean=TRUE)
grid_axe$ygroup = cut2(grid_axe$y,g=16,levels.mean=TRUE)
grid_axe
```

```
## # A tibble: 65,536 x 8
##        x     y line  drawing row_id pixel xgroup  ygroup 
##    <dbl> <dbl> <chr> <chr>    <int> <dbl> <fct>   <fct>  
##  1     1     1 <NA>  <NA>        NA     0 "  8.5" "  8.5"
##  2     2     1 <NA>  <NA>        NA     0 "  8.5" "  8.5"
##  3     3     1 <NA>  <NA>        NA     0 "  8.5" "  8.5"
##  4     4     1 <NA>  <NA>        NA     0 "  8.5" "  8.5"
##  5     5     1 <NA>  <NA>        NA     0 "  8.5" "  8.5"
##  6     6     1 <NA>  <NA>        NA     0 "  8.5" "  8.5"
##  7     7     1 <NA>  <NA>        NA     0 "  8.5" "  8.5"
##  8     8     1 <NA>  <NA>        NA     0 "  8.5" "  8.5"
##  9     9     1 <NA>  <NA>        NA     0 "  8.5" "  8.5"
## 10    10     1 <NA>  <NA>        NA     0 "  8.5" "  8.5"
## # … with 65,526 more rows
```
…
grid_axe = grid_axe %>% 
    mutate(xgroup = as.numeric(as.character(xgroup)) - 7.5) %>%
    mutate(ygroup = as.numeric(as.character(ygroup)) - 7.5)

# Then average within groups of pixels to get a smaller value

small_axe = grid_axe %>% 
    group_by(xgroup,ygroup) %>%
    summarise(pixel=mean(pixel))

small_axe
```

```
## # A tibble: 256 x 3
## # Groups:   xgroup [16]
##    xgroup ygroup   pixel
##     <dbl>  <dbl>   <dbl>
##  1      1      1 0      
##  2      1     17 0      
##  3      1     33 0      
##  4      1     49 0.00391
##  5      1     65 0      
##  6      1     81 0      
##  7      1     97 0      
##  8      1    113 0      
##  9      1    129 0      
## 10      1    145 0      
## # … with 246 more rows
```
…
```r
library(tidyr)
img_final = spread(img_dat[-1,],pixel_number,pixel)
names(img_final) = c("type","drawing",paste0("pixel",1:256))
img_final 
```

```
## # A tibble: 200 x 258
##    type  drawing  pixel1  pixel2  pixel3 pixel4  pixel5  pixel6  pixel7 pixel8
##    <chr>   <int>   <dbl>   <dbl>   <dbl>  <dbl>   <dbl>   <dbl>   <dbl>  <dbl>
##  1 axe         1 0       0       0.0232       0 0       0       0            0
##  2 axe         2 0       0.00368 0            0 0       0       0            0
##  3 axe         3 0.00391 0       0            0 0       0       0.00781      0
##  4 axe         4 0       0       0            0 0       0       0            0
##  5 axe         5 0       0.00781 0.00391      0 0       0       0            0
##  6 axe         6 0.00368 0       0            0 0       0       0            0
##  7 axe         7 0.00391 0.00391 0            0 0       0       0            0
##  8 axe         8 0       0       0            0 0.00391 0.00391 0            0
##  9 axe         9 0       0       0            0 0.00391 0       0            0
## 10 axe        10 0       0       0            0 0       0.00368 0            0
## # … with 190 more rows, and 248 more variables: pixel9 <dbl>, pixel10 <dbl>,
## #   pixel11 <dbl>, pixel12 <dbl>, pixel13 <dbl>, pixel14 <dbl>, pixel15 <dbl>,
## #   pixel16 <dbl>, pixel17 <dbl>, pixel18 <dbl>, pixel19 <dbl>, pixel20 <dbl>,
## #   pixel21 <dbl>, pixel22 <dbl>, pixel23 <dbl>, pixel24 <dbl>, pixel25 <dbl>,
## #   pixel26 <dbl>, pixel27 <dbl>, pixel28 <dbl>, pixel29 <dbl>, pixel30 <dbl>,
## #   pixel31 <dbl>, pixel32 <dbl>, pixel33 <dbl>, pixel34 <dbl>, pixel35 <dbl>,
## #   pixel36 <dbl>, pixel37 <dbl>, pixel38 <dbl>, pixel39 <dbl>, pixel40 <dbl>,
## #   pixel41 <dbl>, pixel42 <dbl>, pixel43 <dbl>, pixel44 <dbl>, pixel45 <dbl>,
## #   pixel46 <dbl>, pixel47 <dbl>, pixel48 <dbl>, pixel49 <dbl>, pixel50 <dbl>,
…
Since this is a prediction problem, we will need to split the data into a training and a testing set. We will learn more about the structure of machine learning vs inference problems later in the course. For now, you can just take my word for it that if we build a model in the training set, we will need a held out set of independent data to validate and critique our model. 


```r
library(caret)
train_set = createDataPartition(img_final$type,list=FALSE)

train_dat = img_final[train_set,]
test_dat = img_final[-train_set,]

train_dat
```

```
## # A tibble: 100 x 258
##    type  drawing  pixel1  pixel2 pixel3  pixel4  pixel5  pixel6  pixel7 pixel8
##    <chr>   <int>   <dbl>   <dbl>  <dbl>   <dbl>   <dbl>   <dbl>   <dbl>  <dbl>
##  1 axe         2 0       0.00368      0 0       0       0       0            0
##  2 axe         3 0.00391 0            0 0       0       0       0.00781      0
##  3 axe         4 0       0            0 0       0       0       0            0
##  4 axe         8 0       0            0 0       0.00391 0.00391 0            0
##  5 axe         9 0       0            0 0       0.00391 0       0            0
##  6 axe        10 0       0            0 0       0       0.00368 0            0
##  7 axe        11 0       0            0 0       0.00781 0       0            0
##  8 axe        13 0.00368 0            0 0       0       0.00368 0            0
##  9 axe        14 0       0.00391      0 0       0       0       0            0
## 10 axe        15 0.00391 0.0156       0 0.00391 0.00391 0       0            0
## # … with 90 more rows, and 248 more variables: pixel9 <dbl>, pixel10 <dbl>,
## #   pixel11 <dbl>, pixel12 <dbl>, pixel13 <dbl>, pixel14 <dbl>, pixel15 <dbl>,
## #   pixel16 <dbl>, pixel17 <dbl>, pixel18 <dbl>, pixel19 <dbl>, pixel20 <dbl>,
## #   pixel21 <dbl>, pixel22 <dbl>, pixel23 <dbl>, pixel24 <dbl>, pixel25 <dbl>,
## #   pixel26 <dbl>, pixel27 <dbl>, pixel28 <dbl>, pixel29 <dbl>, pixel30 <dbl>,
## #   pixel31 <dbl>, pixel32 <dbl>, pixel33 <dbl>, pixel34 <dbl>, pixel35 <dbl>,
## #   pixel36 <dbl>, pixel37 <dbl>, pixel38 <dbl>, pixel39 <dbl>, pixel40 <dbl>,
## #   pixel41 <dbl>, pixel42 <dbl>, pixel43 <dbl>, pixel44 <dbl>, pixel45 <dbl>,
## #   pixel46 <dbl>, pixel47 <dbl>, pixel48 <dbl>, pixel49 <dbl>, pixel50 <dbl>,
…
