…
```r
df
```

```
## # A tibble: 80 x 9
##    address direction street crossStreet intersection `Location 1`
##    <chr>   <chr>     <chr>  <chr>       <chr>        <chr>       
##  1 GARRIS… E/B       "Garr… Wabash Ave  "Garrison \… (39.341209,…
##  2 HILLEN… W/B       "Hill… Forrest St  "Hillen \n … (39.29686, …
##  3 EDMOND… E/B       "Edmo… Woodbridge… "Edmonson\n… (39.293453,…
##  4 YORK R… S/B       "York… Gitting Ave "York Rd \n… (39.370493,…
##  5 RUSSEL… S/B       "Russ… Hamburg St  "Russell\n … (39.279819,…
##  6 S MART… S/B       "MLK … Pratt St    "MLK Jr. Bl… (39.286027,…
##  7 ORLEAN… E/B       "Orle… Linwood Ave "Orleans   … (39.295866,…
##  8 E NORT… W/B       "Nort… Springlake… "Northern P… (39.364311,…
##  9 W COLD… E/B       "Cold… Roland Ave  "Cold Sprin… (39.343906,…
## 10 E NORT… W/B       "Nort… York Road   "Northern P… (39.365146,…
## # … with 70 more rows, and 3 more variables: `2010 Census Neighborhoods` <dbl>,
## #   `2010 Census Wards Precincts` <dbl>, `Zip Codes` <dbl>
```
…
```r
cameras
```

```
## # A tibble: 80 x 9
##    address direction street crossStreet intersection `Location 1`
##    <chr>   <chr>     <chr>  <chr>       <chr>        <chr>       
##  1 GARRIS… E/B       "Garr… Wabash Ave  "Garrison \… (39.341209,…
##  2 HILLEN… W/B       "Hill… Forrest St  "Hillen \n … (39.29686, …
##  3 EDMOND… E/B       "Edmo… Woodbridge… "Edmonson\n… (39.293453,…
##  4 YORK R… S/B       "York… Gitting Ave "York Rd \n… (39.370493,…
##  5 RUSSEL… S/B       "Russ… Hamburg St  "Russell\n … (39.279819,…
##  6 S MART… S/B       "MLK … Pratt St    "MLK Jr. Bl… (39.286027,…
##  7 ORLEAN… E/B       "Orle… Linwood Ave "Orleans   … (39.295866,…
##  8 E NORT… W/B       "Nort… Springlake… "Northern P… (39.364311,…
##  9 W COLD… E/B       "Cold… Roland Ave  "Cold Sprin… (39.343906,…
## 10 E NORT… W/B       "Nort… York Road   "Northern P… (39.365146,…
## # … with 70 more rows, and 3 more variables: `2010 Census Neighborhoods` <dbl>,
## #   `2010 Census Wards Precincts` <dbl>, `Zip Codes` <dbl>
```
…
```
## [1] "2020-10-05-cameras"
```

```r
cameras <- readxl::read_excel(here::here("data","2020-10-05-cameras.xlsx"),sheet=sheets[1])
cameras
```

```
## # A tibble: 80 x 9
##    address direction street crossStreet intersection `Location 1`
##    <chr>   <chr>     <chr>  <chr>       <chr>        <chr>       
##  1 GARRIS… E/B       "Garr… Wabash Ave  "Garrison \… (39.341209,…
##  2 HILLEN… W/B       "Hill… Forrest St  "Hillen \n … (39.29686, …
##  3 EDMOND… E/B       "Edmo… Woodbridge… "Edmonson\n… (39.293453,…
##  4 YORK R… S/B       "York… Gitting Ave "York Rd \n… (39.370493,…
##  5 RUSSEL… S/B       "Russ… Hamburg St  "Russell\n … (39.279819,…
##  6 S MART… S/B       "MLK … Pratt St    "MLK Jr. Bl… (39.286027,…
##  7 ORLEAN… E/B       "Orle… Linwood Ave "Orleans   … (39.295866,…
##  8 E NORT… W/B       "Nort… Springlake… "Northern P… (39.364311,…
##  9 W COLD… E/B       "Cold… Roland Ave  "Cold Sprin… (39.343906,…
## 10 E NORT… W/B       "Nort… York Road   "Northern P… (39.365146,…
## # … with 70 more rows, and 3 more variables: `2010 Census Neighborhoods` <dbl>,
## #   `2010 Census Wards Precincts` <dbl>, `Zip Codes` <dbl>
```
…
```
## Reading from "2020-10-05-cameras"
```

```
## Range "2020-10-05-cameras"
```

```r
cameras
```

```
## # A tibble: 80 x 9
##    address direction street crossStreet intersection `Location 1`
##    <chr>   <chr>     <chr>  <chr>       <chr>        <chr>       
##  1 GARRIS… E/B       Garri… Wabash Ave  "Garrison \… (39.341209,…
##  2 HILLEN… W/B       Hillen Forrest St  "Hillen \n … (39.29686, …
##  3 EDMOND… E/B       Edmon… Woodbridge… "Edmonson\n… (39.293453,…
##  4 YORK R… S/B       York … Gitting Ave "York Rd \n… (39.370493,…
##  5 RUSSEL… S/B       Russe… Hamburg St  "Russell\n … (39.279819,…
##  6 S MART… S/B       MLK J… Pratt St    "MLK Jr. Bl… (39.286027,…
##  7 ORLEAN… E/B       Orlea… Linwood Ave "Orleans   … (39.295866,…
##  8 E NORT… W/B       North… Springlake… "Northern P… (39.364311,…
##  9 W COLD… E/B       Cold … Roland Ave  "Cold Sprin… (39.343906,…
## 10 E NORT… W/B       North… York Road   "Northern P… (39.365146,…
## # … with 70 more rows, and 3 more variables: `2010 Census Neighborhoods` <dbl>,
## #   `2010 Census Wards Precincts` <dbl>, `Zip Codes` <dbl>
```
…
In this case it is a small number, so we can pull all of the data into memory in R using the `collect` function - the resulting data frame has the same number of rows as we discovered using the count function. 


```r
test %>% collect()
```

```
## # A tibble: 347 x 3
##    AlbumId Title                                 ArtistId
##      <int> <chr>                                    <int>
##  1       1 For Those About To Rock We Salute You        1
##  2       2 Balls to the Wall                            2
##  3       3 Restless and Wild                            2
##  4       4 Let There Be Rock                            1
##  5       5 Big Ones                                     3
##  6       6 Jagged Little Pill                           4
##  7       7 Facelift                                     5
##  8       8 Warner 25 Anos                               6
##  9       9 Plays Metallica By Four Cellos               7
## 10      10 Audioslave                                   8
## # … with 337 more rows
```

When working with databases it is a good idea to think about ways you can make the data smaller before pulling it into memory. One is through grouping and aggregating as we showed above


```r
test %>%
  group_by(ArtistId) %>% 
  summarize(n = count(ArtistId)) %>%
        collect()
```

```
## # A tibble: 204 x 2
##    ArtistId     n
##       <int> <int>
##  1        1     2
##  2        2     2
##  3        3     1
##  4        4     1
##  5        5     1
##  6        6     2
##  7        7     1
##  8        8     3
##  9        9     1
## 10       10     1
## # … with 194 more rows
```
…
