3 Week 2 | Week 1
…
## [1] "{\"word\":\"axe\",\"countrycode\":\"US\",\"timestamp\":\"2017-03-27 19:23:56.34464 UTC\",\"recognized\":true,\"key_id\":\"6278062536654848\",\"drawing\":[[[188,191,178],[61,130,255]],[[180,166,131,110,86,72,63,49,44,35,0,16,25,42,53,69,84,109,189,223,228,223],[56,58,73,75,66,56,45,8,4,0,3,88,93,110,132,142,145,143,115,109,106,103]]]}"

The next thing I did was google “quick draw data ndjson rstats”. I found a tutorial and lifted some code for processing ndjson data into data frames. This is a common step in data cleaning - since it is so bespoke by data type you will often want to use Google to search for the data type and the type of cleaning you want to do.

library(dplyr)

parse_drawing = function(list)
{
  lapply(list$drawing, function(z) {data_frame(x=z[[1]], y=z[[2]])}) %>% 
    bind_rows(.id = "line") %>% mutate(drawing=list$key_id, row_id=row_number())
}
first_axe = rjson::fromJSON(axes_json[[1]]) %>% parse_drawing()
first_axe

## # A tibble: 25 x 5
##    line      x     y drawing          row_id
##    <chr> <dbl> <dbl> <chr>             <int>
##  1 1       188    61 6278062536654848      1
##  2 1       191   130 6278062536654848      2
##  3 1       178   255 6278062536654848      3
##  4 2       180    56 6278062536654848      4
##  5 2       166    58 6278062536654848      5
##  6 2       131    73 6278062536654848      6
##  7 2       110    75 6278062536654848      7
##  8 2        86    66 6278062536654848      8
##  9 2        72    56 6278062536654848      9
## 10 2        63    45 6278062536654848     10
## # … with 15 more rows
…
# Now we could make each x,y value be a grid point with a join - this is overkill
grid_axe = left_join(grid_dat,first_axe)

# Let’s add an indicator of whether a particular value is zero or not.
grid_axe = grid_axe %>%
   mutate(pixel = ifelse(is.na(line),0,1))

# subsample to a smaller size
library(Hmisc)
grid_axe$xgroup = cut2(grid_axe$x,g=16,levels.mean=TRUE)
grid_axe$ygroup = cut2(grid_axe$y,g=16,levels.mean=TRUE)
grid_axe

## # A tibble: 65,536 x 8
##        x     y line  drawing row_id pixel xgroup  ygroup 
##    <dbl> <dbl> <chr> <chr>    <int> <dbl> <fct>   <fct>  
##  1     1     1 <NA>  <NA>        NA     0 "  8.5" "  8.5"
##  2     2     1 <NA>  <NA>        NA     0 "  8.5" "  8.5"
##  3     3     1 <NA>  <NA>        NA     0 "  8.5" "  8.5"
##  4     4     1 <NA>  <NA>        NA     0 "  8.5" "  8.5"
##  5     5     1 <NA>  <NA>        NA     0 "  8.5" "  8.5"
##  6     6     1 <NA>  <NA>        NA     0 "  8.5" "  8.5"
##  7     7     1 <NA>  <NA>        NA     0 "  8.5" "  8.5"
##  8     8     1 <NA>  <NA>        NA     0 "  8.5" "  8.5"
##  9     9     1 <NA>  <NA>        NA     0 "  8.5" "  8.5"
## 10    10     1 <NA>  <NA>        NA     0 "  8.5" "  8.5"
## # … with 65,526 more rows
# Now I can convert these to numbers so we’ll have them later

grid_axe = grid_axe %>% 
    mutate(xgroup = as.numeric(as.character(xgroup)) - 7.5) %>%
    mutate(ygroup = as.numeric(as.character(ygroup)) - 7.5)

# Then average within groups of pixels to get a smaller value

small_axe = grid_axe %>% 
    group_by(xgroup,ygroup) %>%
    summarise(pixel=mean(pixel))

small_axe

## # A tibble: 256 x 3
## # Groups:   xgroup [16]
##    xgroup ygroup   pixel
##     <dbl>  <dbl>   <dbl>
##  1      1      1 0      
##  2      1     17 0      
##  3      1     33 0      
##  4      1     49 0      
##  5      1     65 0      
##  6      1     81 0.00391
##  7      1     97 0      
##  8      1    113 0      
##  9      1    129 0      
## 10      1    145 0      
## # … with 246 more rows
…
library(tidyr)
img_final = spread(img_dat[-1,],pixel_number,pixel)
names(img_final) = c("type","drawing",paste0("pixel",1:256))
img_final 

## # A tibble: 200 x 258
##    type  drawing  pixel1  pixel2  pixel3 pixel4  pixel5  pixel6  pixel7 pixel8
##    <chr>   <int>   <dbl>   <dbl>   <dbl>  <dbl>   <dbl>   <dbl>   <dbl>  <dbl>
##  1 axe         1 0       0       0.0232       0 0       0       0            0
##  2 axe         2 0       0.00368 0            0 0       0       0            0
##  3 axe         3 0.00391 0       0            0 0       0       0.00781      0
##  4 axe         4 0       0       0            0 0       0       0            0
##  5 axe         5 0       0.00781 0.00391      0 0       0       0            0
##  6 axe         6 0.00368 0       0            0 0       0       0            0
##  7 axe         7 0.00391 0.00391 0            0 0       0       0            0
##  8 axe         8 0       0       0            0 0.00391 0.00391 0            0
##  9 axe         9 0       0       0            0 0.00391 0       0            0
## 10 axe        10 0       0       0            0 0       0.00368 0            0
## # … with 190 more rows, and 248 more variables: pixel9 <dbl>, pixel10 <dbl>,
## #   pixel11 <dbl>, pixel12 <dbl>, pixel13 <dbl>, pixel14 <dbl>, pixel15 <dbl>,
## #   pixel16 <dbl>, pixel17 <dbl>, pixel18 <dbl>, pixel19 <dbl>, pixel20 <dbl>,
## #   pixel21 <dbl>, pixel22 <dbl>, pixel23 <dbl>, pixel24 <dbl>, pixel25 <dbl>,
## #   pixel26 <dbl>, pixel27 <dbl>, pixel28 <dbl>, pixel29 <dbl>, pixel30 <dbl>,
## #   pixel31 <dbl>, pixel32 <dbl>, pixel33 <dbl>, pixel34 <dbl>, pixel35 <dbl>,
## #   pixel36 <dbl>, pixel37 <dbl>, pixel38 <dbl>, pixel39 <dbl>, pixel40 <dbl>,
## #   pixel41 <dbl>, pixel42 <dbl>, pixel43 <dbl>, pixel44 <dbl>, pixel45 <dbl>,
## #   pixel46 <dbl>, pixel47 <dbl>, pixel48 <dbl>, pixel49 <dbl>, pixel50 <dbl>,
…
Since this is a prediction problem, we will need to split the data into a training and a testing set. We will learn more about the structure of machine learning vs inference problems later in the course. For now, you can just take my word for it that if we build a model in the training set, we will need a held out set of independent data to validate and critique our model.

library(caret)
train_set = createDataPartition(img_final$type,list=FALSE)

train_dat = img_final[train_set,]
test_dat = img_final[-train_set,]

train_dat

## # A tibble: 100 x 258
##    type  drawing  pixel1  pixel2 pixel3  pixel4  pixel5  pixel6  pixel7 pixel8
##    <chr>   <int>   <dbl>   <dbl>  <dbl>   <dbl>   <dbl>   <dbl>   <dbl>  <dbl>
##  1 axe         2 0       0.00368      0 0       0       0       0            0
##  2 axe         3 0.00391 0            0 0       0       0       0.00781      0
##  3 axe         4 0       0            0 0       0       0       0            0
##  4 axe         8 0       0            0 0       0.00391 0.00391 0            0
##  5 axe         9 0       0            0 0       0.00391 0       0            0
##  6 axe        10 0       0            0 0       0       0.00368 0            0
##  7 axe        11 0       0            0 0       0.00781 0       0            0
##  8 axe        13 0.00368 0            0 0       0       0.00368 0            0
##  9 axe        14 0       0.00391      0 0       0       0       0            0
## 10 axe        15 0.00391 0.0156       0 0.00391 0.00391 0       0            0
## # … with 90 more rows, and 248 more variables: pixel9 <dbl>, pixel10 <dbl>,
## #   pixel11 <dbl>, pixel12 <dbl>, pixel13 <dbl>, pixel14 <dbl>, pixel15 <dbl>,
## #   pixel16 <dbl>, pixel17 <dbl>, pixel18 <dbl>, pixel19 <dbl>, pixel20 <dbl>,
## #   pixel21 <dbl>, pixel22 <dbl>, pixel23 <dbl>, pixel24 <dbl>, pixel25 <dbl>,
## #   pixel26 <dbl>, pixel27 <dbl>, pixel28 <dbl>, pixel29 <dbl>, pixel30 <dbl>,
## #   pixel31 <dbl>, pixel32 <dbl>, pixel33 <dbl>, pixel34 <dbl>, pixel35 <dbl>,
## #   pixel36 <dbl>, pixel37 <dbl>, pixel38 <dbl>, pixel39 <dbl>, pixel40 <dbl>,
## #   pixel41 <dbl>, pixel42 <dbl>, pixel43 <dbl>, pixel44 <dbl>, pixel45 <dbl>,
## #   pixel46 <dbl>, pixel47 <dbl>, pixel48 <dbl>, pixel49 <dbl>, pixel50 <dbl>,
…
