6 Week 5 | Week 1
…
A Monte Carlo simulation can be used to show how data
dredging can result in finding high correlations
among uncorrelated variables. We will save the results
of our simulation into a tibble:

N <- 25
G <- 10000
set.seed(1000)
sim_data <- tibble(group = rep(1:G, each = N),
                   X = rnorm(N*G), Y = rnorm(N*G))
sim_data

## # A tibble: 250,000 x 3
##    group       X       Y
##    <int>   <dbl>   <dbl>
##  1     1 -0.446  -0.312 
##  2     1 -1.21    0.0613
##  3     1  0.0411  1.17  
##  4     1  0.639  -1.32  
##  5     1 -0.787   1.89  
##  6     1 -0.385  -1.04  
##  7     1 -0.476   0.446 
##  8     1  0.720   0.396 
##  9     1 -0.0185  0.864 
## 10     1 -1.37    1.10  
## # … with 249,990 more rows
…
Next, we compute the correlation between X and Y
for each group and look at the max:

res <- sim_data %>% 
  group_by(group) %>% 
  dplyr::summarize(r = cor(X, Y)) %>% 
  arrange(desc(r))

## `summarise()` ungrouping output (override with `.groups` argument)

res

## # A tibble: 10,000 x 2
##    group     r
##    <int> <dbl>
##  1  2519 0.641
##  2  7746 0.620
##  3  5914 0.598
##  4  5516 0.589
##  5  3488 0.582
##  6  7531 0.581
##  7  2549 0.581
##  8  1362 0.573
##  9  7072 0.573
## 10  7544 0.571
## # … with 9,990 more rows
…
