7 Week 6 | Week 1
…
df

## # A tibble: 80 x 9
##    address direction street crossStreet intersection `Location 1`
##    <chr>   <chr>     <chr>  <chr>       <chr>        <chr>       
##  1 GARRIS… E/B       "Garr… Wabash Ave  "Garrison \… (39.341209,…
##  2 HILLEN… W/B       "Hill… Forrest St  "Hillen \n … (39.29686, …
##  3 EDMOND… E/B       "Edmo… Woodbridge… "Edmonson\n… (39.293453,…
##  4 YORK R… S/B       "York… Gitting Ave "York Rd \n… (39.370493,…
##  5 RUSSEL… S/B       "Russ… Hamburg St  "Russell\n … (39.279819,…
##  6 S MART… S/B       "MLK … Pratt St    "MLK Jr. Bl… (39.286027,…
##  7 ORLEAN… E/B       "Orle… Linwood Ave "Orleans   … (39.295866,…
##  8 E NORT… W/B       "Nort… Springlake… "Northern P… (39.364311,…
##  9 W COLD… E/B       "Cold… Roland Ave  "Cold Sprin… (39.343906,…
## 10 E NORT… W/B       "Nort… York Road   "Northern P… (39.365146,…
## # … with 70 more rows, and 3 more variables: `2010 Census Neighborhoods` <dbl>,
## #   `2010 Census Wards Precincts` <dbl>, `Zip Codes` <dbl>
…
cameras

## # A tibble: 80 x 9
##    address direction street crossStreet intersection `Location 1`
##    <chr>   <chr>     <chr>  <chr>       <chr>        <chr>       
##  1 GARRIS… E/B       "Garr… Wabash Ave  "Garrison \… (39.341209,…
##  2 HILLEN… W/B       "Hill… Forrest St  "Hillen \n … (39.29686, …
##  3 EDMOND… E/B       "Edmo… Woodbridge… "Edmonson\n… (39.293453,…
##  4 YORK R… S/B       "York… Gitting Ave "York Rd \n… (39.370493,…
##  5 RUSSEL… S/B       "Russ… Hamburg St  "Russell\n … (39.279819,…
##  6 S MART… S/B       "MLK … Pratt St    "MLK Jr. Bl… (39.286027,…
##  7 ORLEAN… E/B       "Orle… Linwood Ave "Orleans   … (39.295866,…
##  8 E NORT… W/B       "Nort… Springlake… "Northern P… (39.364311,…
##  9 W COLD… E/B       "Cold… Roland Ave  "Cold Sprin… (39.343906,…
## 10 E NORT… W/B       "Nort… York Road   "Northern P… (39.365146,…
## # … with 70 more rows, and 3 more variables: `2010 Census Neighborhoods` <dbl>,
## #   `2010 Census Wards Precincts` <dbl>, `Zip Codes` <dbl>
…
The basic principles are: be consistent, write dates like YYYY-MM-DD, do not leave any cells empty, put just one thing in a cell, organize the data as a single rectangle (with subjects as rows and variables as columns, and with a single header row), create a data dictionary, do not include calculations in the raw data files, do not use font color or highlighting as data, choose good names for things, make backups, use data validation to avoid data entry errors, and save the data in plain text files.

Unfortunately this is rarely the case and spreadsheets are deceptively difficult to import into R when they have formulae, colored fields, hidden sheets and other things. We can download the cameras data in Excel format and read it with the readxl package:

library(readxl)
sheets = readxl::excel_sheets(here::here("data","2020-10-05-cameras.xlsx"))
sheets

## [1] "2020-10-05-cameras"

cameras <- readxl::read_excel(here::here("data","2020-10-05-cameras.xlsx"),sheet=sheets[1])
cameras

## # A tibble: 80 x 9
##    address direction street crossStreet intersection `Location 1`
##    <chr>   <chr>     <chr>  <chr>       <chr>        <chr>       
##  1 GARRIS… E/B       "Garr… Wabash Ave  "Garrison \… (39.341209,…
##  2 HILLEN… W/B       "Hill… Forrest St  "Hillen \n … (39.29686, …
##  3 EDMOND… E/B       "Edmo… Woodbridge… "Edmonson\n… (39.293453,…
##  4 YORK R… S/B       "York… Gitting Ave "York Rd \n… (39.370493,…
##  5 RUSSEL… S/B       "Russ… Hamburg St  "Russell\n … (39.279819,…
##  6 S MART… S/B       "MLK … Pratt St    "MLK Jr. Bl… (39.286027,…
##  7 ORLEAN… E/B       "Orle… Linwood Ave "Orleans   … (39.295866,…
##  8 E NORT… W/B       "Nort… Springlake… "Northern P… (39.364311,…
##  9 W COLD… E/B       "Cold… Roland Ave  "Cold Sprin… (39.343906,…
## 10 E NORT… W/B       "Nort… York Road   "Northern P… (39.365146,…
## # … with 70 more rows, and 3 more variables: `2010 Census Neighborhoods` <dbl>,
## #   `2010 Census Wards Precincts` <dbl>, `Zip Codes` <dbl>
…
library(googlesheets4)
gs4_deauth()
cameras = googlesheets4::read_sheet("https://docs.google.com/spreadsheets/d/16gHHSHCIg7r4NRu_8dbCaZzjkEChh799nyujXbiDVPg/edit?usp=sharing")

## Reading from "2020-10-05-cameras"

## Range "2020-10-05-cameras"

cameras

## # A tibble: 80 x 9
##    address direction street crossStreet intersection `Location 1`
##    <chr>   <chr>     <chr>  <chr>       <chr>        <chr>       
##  1 GARRIS… E/B       Garri… Wabash Ave  "Garrison \… (39.341209,…
##  2 HILLEN… W/B       Hillen Forrest St  "Hillen \n … (39.29686, …
##  3 EDMOND… E/B       Edmon… Woodbridge… "Edmonson\n… (39.293453,…
##  4 YORK R… S/B       York … Gitting Ave "York Rd \n… (39.370493,…
##  5 RUSSEL… S/B       Russe… Hamburg St  "Russell\n … (39.279819,…
##  6 S MART… S/B       MLK J… Pratt St    "MLK Jr. Bl… (39.286027,…
##  7 ORLEAN… E/B       Orlea… Linwood Ave "Orleans   … (39.295866,…
##  8 E NORT… W/B       North… Springlake… "Northern P… (39.364311,…
##  9 W COLD… E/B       Cold … Roland Ave  "Cold Sprin… (39.343906,…
## 10 E NORT… W/B       North… York Road   "Northern P… (39.365146,…
## # … with 70 more rows, and 3 more variables: `2010 Census Neighborhoods` <dbl>,
## #   `2010 Census Wards Precincts` <dbl>, `Zip Codes` <dbl>
…
If you want to pull all of the data into R, a good idea is to first check and see how many rows it has. You can do this with the count function

test %>% count()

## # Source:   lazy query [?? x 1]
## # Database: sqlite 3.33.0 [/cloud/project/data/Chinook.sqlite]
##       n
##   <int>
## 1   347

In this case it is a small number, so we can pull all of the data into memory in R using the collect function - the resulting data frame has the same number of rows as we discovered using the count function.

test %>% collect()

## # A tibble: 347 x 3
##    AlbumId Title                                 ArtistId
##      <int> <chr>                                    <int>
##  1       1 For Those About To Rock We Salute You        1
##  2       2 Balls to the Wall                            2
##  3       3 Restless and Wild                            2
##  4       4 Let There Be Rock                            1
##  5       5 Big Ones                                     3
##  6       6 Jagged Little Pill                           4
##  7       7 Facelift                                     5
##  8       8 Warner 25 Anos                               6
##  9       9 Plays Metallica By Four Cellos               7
## 10      10 Audioslave                                   8
## # … with 337 more rows

When working with databases it is a good idea to think about ways you can make the data smaller before pulling it into memory. One is through grouping and aggregating as we showed above

test %>%
  group_by(ArtistId) %>% 
  summarize(n = count(ArtistId)) %>%
        collect()

## # A tibble: 204 x 2
##    ArtistId     n
##       <int> <int>
##  1        1     2
##  2        2     2
##  3        3     1
##  4        4     1
##  5        5     1
##  6        6     2
##  7        7     1
##  8        8     3
##  9        9     1
## 10       10     1
## # … with 194 more rows
…
